1 10 20
100 200 125
201 210 89
900 1000 174
116910 756056 509
1 999999 525
100 12 119
200 300 128
301 400 144
401 500 142
501 600 137
601 700 145
701 800 171
801 900 179
901 1000 174
1001 1100 169
1101 1200 182
1201 1300 177
1301 1400 177
1410 1500 172
1501 1600 167
1601 1700 180
2000 2897 209
2895 32341 308
1701 1800 180
2000 2001 113
1 1 1
3 1 8
999990 999999 259
5000 6789 262
75343 82346 351
666 666 114
1232 432245 449
2 888673 525
999999 1 525
6000 7000 262
8000 9999 260
10000 11000 268
11001 12000 250
321 456234 449
74765 1231 340
3121 64566 340
800 75633 340
2001 2100 157
2101 2200 170
2201 2300 183
2301 2400 183
2401 2500 209
45445 12312 324
1 857631 525
4564 88888 351
900 900 55
99921 23123 351
888 999 174
100 1111 179
11234 1231 268
677736 165761 509
147427 209063 383
89401 835566 509
210276 279555 443
166045 470235 449
439870 313461 449
513371 214417 470
663441 401355 509
767068 491196 509
260022 252704 363
336915 735908 509
847706 146674 525
182227 418698 449
829786 811253 450
868433 234294 525
838580 765411 525
315952 45621 443
489285 442637 444
350391 124255 443
455979 337339 449
683484 423694 509
405664 550725 470
832058 487393 509
693767 330780 509
705809 83571 509
868979 30373 525
656269 505582 509
476891 582646 470
534834 451576 470
960034 986457 458
233250 753916 509
770118 495915 509
482298 10603 449
958665 553455 525
197336 880115 525
457009 963594 525
505714 654822 509
466716 38187 449
117162 249684 443
63487 518227 470
801514 175136 509
325511 836606 509
666985 173221 509
309706 850251 525
322646 283012 389
988031 831455 525
210800 236723 443
928105 81770 525
816753 452292 509
634086 454687 509
