.............
----------------------------------------------------------------------
Ran 13 tests in 11.120s

OK
Name             Stmts   Miss Branch BrPart  Cover   Missing
------------------------------------------------------------
Collatz.py          36      0     14      0   100%
TestCollatz.py      60      0      0      0   100%
------------------------------------------------------------
TOTAL               96      0     14      0   100%
